<svg width="16" height="14" viewBox="0 0 16 14" fill="none" xmlns="http://www.w3.org/2000/svg">
<path d="M4.12002 13.6295C3.99638 13.6299 3.87422 13.6026 3.76245 13.5497C3.65069 13.4969 3.55215 13.4197 3.47404 13.3238C3.39593 13.228 3.34021 13.1159 3.31097 12.9958C3.28173 12.8756 3.2797 12.7505 3.30502 12.6295L3.97002 8.73947L1.14502 5.99447C1.03433 5.88634 0.956075 5.74942 0.919084 5.59916C0.882093 5.44891 0.887842 5.29131 0.935682 5.14415C0.983522 4.99699 1.07155 4.86613 1.18982 4.76635C1.3081 4.66657 1.45191 4.60184 1.60502 4.57947L5.50002 4.01447L7.24502 0.474472C7.31232 0.332513 7.41852 0.212568 7.55128 0.128577C7.68405 0.0445866 7.83792 0 7.99502 0C8.15212 0 8.306 0.0445866 8.43876 0.128577C8.57153 0.212568 8.67773 0.332513 8.74502 0.474472L10.5 4.01447L14.405 4.58447C14.5581 4.60684 14.702 4.67157 14.8202 4.77135C14.9385 4.87113 15.0265 5.00199 15.0744 5.14915C15.1222 5.29631 15.128 5.45391 15.091 5.60416C15.054 5.75442 14.9757 5.89134 14.865 5.99947L12.04 8.75447L12.695 12.6295C12.7211 12.7813 12.7044 12.9373 12.6469 13.0802C12.5893 13.223 12.4932 13.347 12.3692 13.4384C12.2452 13.5297 12.0982 13.5847 11.9447 13.5973C11.7912 13.6098 11.6372 13.5794 11.5 13.5095L8.00002 11.6745L4.50002 13.5095C4.38506 13.5799 4.25459 13.6211 4.12002 13.6295ZM2.09502 5.51947L4.73502 8.09447C4.83203 8.18806 4.90462 8.30398 4.94646 8.43211C4.9883 8.56025 4.9981 8.69667 4.97502 8.82947L4.35002 12.4595L7.61502 10.7445C7.73382 10.6823 7.86592 10.6498 8.00002 10.6498C8.13412 10.6498 8.26622 10.6823 8.38502 10.7445L11.65 12.4595L11.025 8.82447C11.0019 8.69168 11.0117 8.55525 11.0536 8.42712C11.0954 8.29899 11.168 8.18306 11.265 8.08947L13.905 5.51447L10.255 4.98447C10.1217 4.96503 9.9952 4.91345 9.88631 4.83418C9.77743 4.75491 9.68947 4.65033 9.63002 4.52947L8.00002 1.22947L6.37002 4.53447C6.31058 4.65533 6.22262 4.75991 6.11373 4.83918C6.00484 4.91845 5.8783 4.97003 5.74502 4.98947L2.09502 5.51947Z" fill="white"/>
<path d="M8.29535 0.69451L10.0803 4.31451C10.1038 4.36196 10.1382 4.40308 10.1809 4.4344C10.2235 4.46573 10.2731 4.48634 10.3253 4.49451L14.3253 5.07451C14.3841 5.08555 14.4387 5.11231 14.4833 5.15195C14.528 5.19159 14.5611 5.24262 14.5791 5.29959C14.5971 5.35656 14.5992 5.41734 14.5854 5.47544C14.5715 5.53354 14.5421 5.58679 14.5003 5.62951L11.6103 8.44451C11.5723 8.48163 11.5438 8.52738 11.5273 8.57787C11.5108 8.62836 11.5067 8.68209 11.5153 8.73451L12.1953 12.7345C12.2084 12.798 12.2024 12.8638 12.1783 12.9239C12.1541 12.984 12.1128 13.0357 12.0595 13.0724C12.0062 13.1092 11.9432 13.1295 11.8785 13.1308C11.8137 13.132 11.75 13.1142 11.6953 13.0795L8.12535 11.1995C8.07826 11.175 8.02594 11.1622 7.97285 11.1622C7.91975 11.1622 7.86743 11.175 7.82035 11.1995L4.27535 13.0645C4.22065 13.0992 4.15696 13.117 4.09221 13.1158C4.02746 13.1145 3.9645 13.0942 3.9112 13.0574C3.85789 13.0207 3.81659 12.969 3.79243 12.9089C3.76827 12.8488 3.76233 12.783 3.77535 12.7195L4.45535 8.71951C4.46402 8.66709 4.45992 8.61336 4.44338 8.56287C4.42684 8.51238 4.39836 8.46663 4.36035 8.42951L1.50035 5.62951C1.45713 5.58661 1.42663 5.5326 1.41222 5.47344C1.3978 5.41429 1.40003 5.35229 1.41866 5.29433C1.43729 5.23636 1.4716 5.18468 1.51779 5.145C1.56397 5.10532 1.62023 5.07919 1.68035 5.06951L5.68035 4.48951C5.73262 4.48135 5.78217 4.46073 5.82481 4.4294C5.86745 4.39808 5.90193 4.35696 5.92535 4.30951L7.71035 0.68951C7.73871 0.636304 7.78112 0.591888 7.83295 0.561085C7.88478 0.530281 7.94407 0.514267 8.00436 0.514783C8.06465 0.515298 8.12365 0.532322 8.17495 0.564008C8.22625 0.595693 8.26789 0.640827 8.29535 0.69451Z" fill="white"/>
</svg>
